{
  "rows": 10,
  "cols": 10,
  "list": [
    {
      "north": false,
      "south": true,
      "east": true,
      "west": false
    },
    {
      "north": false,
      "south": false,
      "east": true,
      "west": true
    },
    {
      "north": false,
      "south": true,
      "east": true,
      "west": true
    },
    {
      "north": false,
      "south": true,
      "east": true,
      "west": true
    },
    {
      "north": false,
      "south": false,
      "east": true,
      "west": true
    },
    {
      "north": false,
      "south": false,
      "east": true,
      "west": true
    },
    {
      "north": false,
      "south": false,
      "east": true,
      "west": true
    },
    {
      "north": false,
      "south": false,
      "east": true,
      "west": true
    },
    {
      "north": false,
      "south": true,
      "east": true,
      "west": true
    },
    {
      "north": false,
      "south": true,
      "east": false,
      "west": true
    },
    {
      "north": true,
      "south": true,
      "east": false,
      "west": false
    },
    {
      "north": false,
      "south": true,
      "east": true,
      "west": false
    },
    {
      "north": true,
      "south": true,
      "east": false,
      "west": true
    },
    {
      "north": true,
      "south": false,
      "east": false,
      "west": false
    },
    {
      "north": false,
      "south": false,
      "east": true,
      "west": false
    },
    {
      "north": false,
      "south": false,
      "east": true,
      "west": true
    },
    {
      "north": false,
      "south": false,
      "east": true,
      "west": true
    },
    {
      "north": false,
      "south": false,
      "east": true,
      "west": true
    },
    {
      "north": true,
      "south": false,
      "east": false,
      "west": true
    },
    {
      "north": true,
      "south": true,
      "east": false,
      "west": false
    },
    {
      "north": true,
      "south": false,
      "east": false,
      "west": false
    },
    {
      "north": true,
      "south": true,
      "east": false,
      "west": false
    },
    {
      "north": true,
      "south": false,
      "east": false,
      "west": false
    },
    {
      "north": false,
      "south": false,
      "east": true,
      "west": false
    },
    {
      "north": false,
      "south": false,
      "east": true,
      "west": true
    },
    {
      "north": false,
      "south": true,
      "east": true,
      "west": true
    },
    {
      "north": false,
      "south": false,
      "east": true,
      "west": true
    },
    {
      "north": false,
      "south": false,
      "east": true,
      "west": true
    },
    {
      "north": false,
      "south": true,
      "east": true,
      "west": true
    },
    {
      "north": true,
      "south": true,
      "east": false,
      "west": true
    },
    {
      "north": false,
      "south": false,
      "east": true,
      "west": false
    },
    {
      "north": true,
      "south": true,
      "east": false,
      "west": true
    },
    {
      "north": false,
      "south": true,
      "east": true,
      "west": false
    },
    {
      "north": false,
      "south": false,
      "east": true,
      "west": true
    },
    {
      "north": false,
      "south": true,
      "east": true,
      "west": true
    },
    {
      "north": true,
      "south": true,
      "east": false,
      "west": true
    },
    {
      "north": false,
      "south": true,
      "east": true,
      "west": false
    },
    {
      "north": false,
      "south": true,
      "east": true,
      "west": true
    },
    {
      "north": true,
      "south": false,
      "east": false,
      "west": true
    },
    {
      "north": true,
      "south": true,
      "east": false,
      "west": false
    },
    {
      "north": false,
      "south": false,
      "east": true,
      "west": false
    },
    {
      "north": true,
      "south": true,
      "east": false,
      "west": true
    },
    {
      "north": true,
      "south": false,
      "east": false,
      "west": false
    },
    {
      "north": false,
      "south": false,
      "east": true,
      "west": false
    },
    {
      "north": true,
      "south": false,
      "east": false,
      "west": true
    },
    {
      "north": true,
      "south": false,
      "east": false,
      "west": false
    },
    {
      "north": true,
      "south": false,
      "east": false,
      "west": false
    },
    {
      "north": true,
      "south": false,
      "east": false,
      "west": false
    },
    {
      "north": false,
      "south": false,
      "east": true,
      "west": false
    },
    {
      "north": true,
      "south": true,
      "east": false,
      "west": true
    },
    {
      "north": false,
      "south": true,
      "east": true,
      "west": false
    },
    {
      "north": true,
      "south": true,
      "east": false,
      "west": true
    },
    {
      "north": false,
      "south": false,
      "east": true,
      "west": false
    },
    {
      "north": false,
      "south": true,
      "east": true,
      "west": true
    },
    {
      "north": false,
      "south": true,
      "east": true,
      "west": true
    },
    {
      "north": false,
      "south": false,
      "east": true,
      "west": true
    },
    {
      "north": false,
      "south": false,
      "east": true,
      "west": true
    },
    {
      "north": false,
      "south": true,
      "east": true,
      "west": true
    },
    {
      "north": false,
      "south": false,
      "east": true,
      "west": true
    },
    {
      "north": true,
      "south": true,
      "east": false,
      "west": true
    },
    {
      "north": true,
      "south": false,
      "east": false,
      "west": false
    },
    {
      "north": true,
      "south": true,
      "east": false,
      "west": false
    },
    {
      "north": false,
      "south": false,
      "east": true,
      "west": false
    },
    {
      "north": true,
      "south": true,
      "east": false,
      "west": true
    },
    {
      "north": true,
      "south": true,
      "east": false,
      "west": false
    },
    {
      "north": false,
      "south": false,
      "east": true,
      "west": false
    },
    {
      "north": false,
      "south": true,
      "east": true,
      "west": true
    },
    {
      "north": true,
      "south": true,
      "east": false,
      "west": true
    },
    {
      "north": false,
      "south": true,
      "east": true,
      "west": false
    },
    {
      "north": true,
      "south": true,
      "east": false,
      "west": true
    },
    {
      "north": false,
      "south": true,
      "east": true,
      "west": false
    },
    {
      "north": true,
      "south": true,
      "east": false,
      "west": true
    },
    {
      "north": false,
      "south": false,
      "east": true,
      "west": false
    },
    {
      "north": true,
      "south": true,
      "east": false,
      "west": true
    },
    {
      "north": true,
      "south": false,
      "east": false,
      "west": false
    },
    {
      "north": false,
      "south": false,
      "east": true,
      "west": false
    },
    {
      "north": true,
      "south": false,
      "east": false,
      "west": true
    },
    {
      "north": true,
      "south": true,
      "east": false,
      "west": false
    },
    {
      "north": true,
      "south": false,
      "east": false,
      "west": false
    },
    {
      "north": true,
      "south": true,
      "east": false,
      "west": false
    },
    {
      "north": true,
      "south": true,
      "east": false,
      "west": false
    },
    {
      "north": true,
      "south": true,
      "east": false,
      "west": false
    },
    {
      "north": false,
      "south": true,
      "east": true,
      "west": false
    },
    {
      "north": true,
      "south": true,
      "east": false,
      "west": true
    },
    {
      "north": false,
      "south": false,
      "east": true,
      "west": false
    },
    {
      "north": false,
      "south": false,
      "east": true,
      "west": true
    },
    {
      "north": false,
      "south": false,
      "east": true,
      "west": true
    },
    {
      "north": true,
      "south": false,
      "east": false,
      "west": true
    },
    {
      "north": false,
      "south": false,
      "east": true,
      "west": false
    },
    {
      "north": true,
      "south": true,
      "east": false,
      "west": true
    },
    {
      "north": true,
      "south": false,
      "east": false,
      "west": false
    },
    {
      "north": true,
      "south": false,
      "east": false,
      "west": false
    },
    {
      "north": true,
      "south": false,
      "east": false,
      "west": false
    },
    {
      "north": true,
      "south": false,
      "east": false,
      "west": false
    },
    {
      "north": false,
      "south": false,
      "east": true,
      "west": false
    },
    {
      "north": false,
      "south": false,
      "east": true,
      "west": true
    },
    {
      "north": false,
      "south": false,
      "east": true,
      "west": true
    },
    {
      "north": false,
      "south": false,
      "east": true,
      "west": true
    },
    {
      "north": false,
      "south": false,
      "east": true,
      "west": true
    },
    {
      "north": true,
      "south": false,
      "east": false,
      "west": true
    }
  ]
}